{
  "name": "Course",
  "plural": "Courses",
  "base": "PersistedModel",
  "idInjection": true,
  "options": {
    "validateUpsert": true
  },
  "properties": {
    "title": {
      "type": "string",
      "required": true,
      "default": "Codestreet Awesome Course"
    },
    "subTitle": {
      "type": "string",
      "required": true,
      "default": "Codestreet Awesome Course"
    },
    "introVideoUrl": {
      "type": "string",
      "default": "https://www.youtube.com/embed/sHwd-A166rw"
    },
    "author": {
      "type": "string",
      "default": "Codestreet Staff"
    },
    "description": {
      "type": "string",
      "default": "Codestreet Exclusive Course"
    },
    "type": {
      "type": "string",
      "default": "Instructor Led"
    },
    "skill": {
      "type": "string",
      "default": "All Levels"
    },
    "language": {
      "type": "string",
      "default": "English"
    },
    "isBestseller": {
      "type": "boolean",
      "default": false
    },
    "price": {
      "type": "number",
      "default": 49
    },
    "created": {
      "type": "date"
    },
    "modified": {
      "type": "date"
    }
  },
  "validations": [],
  "relations": {},
  "acls": [
    {
      "accessType": "*",
      "principalType": "ROLE",
      "principalId": "admin",
      "permission": "ALLOW"
    },
    {
      "accessType": "READ",
      "principalType": "ROLE",
      "principalId": "$everyone",
      "permission": "ALLOW"
    },
    {
      "accessType": "*",
      "principalType": "ROLE",
      "principalId": "$owner",
      "permission": "ALLOW"
    },
    {
      "accessType": "READ",
      "principalType": "ROLE",
      "principalId": "$everyone",
      "permission": "ALLOW"
    },
    {
      "accessType": "WRITE",
      "principalType": "ROLE",
      "principalId": "$authenticated",
      "permission": "ALLOW"
    },
    {
      "accessType": "EXECUTE",
      "principalType": "ROLE",
      "principalId": "$authenticated",
      "permission": "ALLOW"
    }
  ],
  "methods": {}
}
